image name,compost percentage,recycling percentage,trash percentage,correctness,category
waterbottle_7.jpeg,0.088285090168938,99.8202204704285,0.091498461551964,True,recycle
soda can_2.jpeg,0.488178245723248,98.3636558055878,1.14816520363092,True,recycle
soda can_0.jpeg,0.124780647456646,99.6172487735749,0.257966667413712,True,recycle
waterbottle_2.jpeg,1.78389381617308,82.5966238975525,15.619483590126,True,recycle
tin can_0.jpeg,0.312162074260414,98.7813949584961,0.906446948647499,True,recycle
waterbottle_5.jpeg,0.512142339721322,99.2351472377777,0.252701947465539,True,recycle
tin can_5.jpeg,0.099646509625018,99.5428442955017,0.357514666393399,True,recycle
waterbottle_8.jpeg,0.173826515674591,99.6800065040588,0.146165827754885,True,recycle
waterbottle_0.jpeg,0.104258069768548,99.8605072498322,0.035240716533735,True,recycle
soda can_1.jpeg,0.942564476281405,96.4208900928497,2.63654831796885,True,recycle
waterbottle_4.jpeg,0.179635244421661,99.7016191482544,0.118748296517879,True,recycle
tin can_1.jpeg,0.151360605377704,99.1910040378571,0.657632574439049,True,recycle
soda can_3.jpeg,0.684881256893277,96.7143952846527,2.60072238743305,True,recycle
waterbottle_6.jpeg,0.260783242993057,99.4944036006928,0.244813621975481,True,recycle
waterbottle_3.jpeg,0.111569731961936,99.7128069400787,0.175626203417778,True,recycle
tin can_2.jpeg,0.075609801569954,99.5676100254059,0.356785533949733,True,recycle
waterbottle_9.jpeg,0.345998140983284,99.5724678039551,0.081532303011045,True,recycle
tin can_4.jpeg,1.22634405270219,89.8674726486206,8.9061863720417,True,recycle
waterbottle_1.jpeg,0.204910314641893,99.7260808944702,0.069008464924991,True,recycle
soda can_5.jpeg,0.38988315500319,97.7016389369965,1.90848261117935,True,recycle
lays1.jpg,0.091267563402653,0.451974431052804,99.4567632675171,True,trash
lays0.jpg,0.419990345835686,2.23036408424377,97.3496437072754,True,trash
lays3.jpg,0.16988271381706,2.15072445571423,97.6794004440308,True,trash
styrofoam_2.jpeg,3.73971797525883,7.94300436973572,88.3172750473022,True,trash
styrofoam_7.jpeg,6.1066959053278,32.9415857791901,60.9517276287079,True,trash
styrofoam_6.jpeg,2.3101344704628,10.0408241152763,87.6490473747253,True,trash
styrofoam_5.jpeg,1.64999943226576,15.7691821455956,82.5808227062225,True,trash
doritos1.jpg,0.829542987048626,11.7823570966721,87.3880982398987,True,trash
lays2.jpg,0.688419491052628,1.70611143112183,97.6054668426514,True,trash
cheetos1.jpg,0.429380917921662,3.0715012922883,96.499115228653,True,trash
styrofoam_0.jpeg,2.24154535681009,10.3295497596264,87.4289095401764,True,trash
styrofoam_1.jpeg,5.78637830913067,19.3297639489174,74.8838543891907,True,trash
styrofoam_4.jpeg,2.85828430205584,10.8287751674652,86.3129436969757,True,trash
styrofoam_3.jpeg,6.01258501410484,38.2819771766663,55.7054400444031,True,trash
cheetos0.jpg,0.228509772568941,2.67108511179686,97.1004068851471,True,trash
doritos0.jpg,0.90063102543354,4.83260452747345,94.2667663097382,True,trash
lays5.jpg,0.313278916291893,0.867827888578177,98.8188862800598,True,trash
lays4.jpg,0.101494323462248,0.376271642744541,99.5222389698029,True,trash
styrofoam_9.jpeg,4.30706106126309,28.0599504709244,67.6329791545868,True,trash
styrofoam_8.jpeg,1.73366647213697,73.4964430332184,24.7698917984962,False,trash
banana_7.jpeg,99.7949779033661,0.138930731918663,0.066091323969886,True,compost
banana_9.jpeg,98.7547099590302,0.779395317658782,0.465901335701346,True,compost
banana_3.jpeg,98.9603221416473,0.819100346416235,0.220575439743698,True,compost
banana_8.png,99.8155534267426,0.110024935565889,0.074419192969799,True,compost
avocado8.jpg,98.2031464576721,1.47522334009409,0.321631249971688,True,compost
avocado9.jpg,99.4389593601227,0.331743503920734,0.229292921721935,True,compost
banana_6.jpeg,99.482649564743,0.312511646188796,0.204828986898065,True,compost
avocado7.jpg,95.2345430850983,3.04064378142357,1.72481667250395,True,compost
avocado5.jpg,95.2814757823944,3.20862755179405,1.50990067049861,True,compost
banana_2.jpeg,99.6196269989014,0.293239997699857,0.087135232752189,True,compost
banana_5.jpeg,99.8188436031342,0.107093097176403,0.074060307815671,True,compost
avocado6.jpg,95.4372704029083,3.04450783878565,1.51821337640286,True,compost
banana_4.jpeg,99.7156143188477,0.200411770492792,0.083964032819495,True,compost
avocado1.jpg,97.246640920639,1.84085555374622,0.912507064640522,True,compost
avocado2.jpg,97.5220382213592,1.85826178640127,0.61970273964107,True,compost
avocado3.jpg,95.6222236156464,2.93985512107611,1.43791884183884,True,compost
avocado0.jpg,93.44562292099,4.35322411358357,2.20114700496197,True,compost
banana_0.png,99.6213376522064,0.292125879786909,0.086533819558099,True,compost
banana_1.jpg,99.8135566711426,0.13043392682448,0.05600749864243,True,compost
avocado4.jpg,98.866593837738,0.619826372712851,0.513584166765213,True,compost
