<?xml version="1.0" standalone="no"?>
<!DOCTYPE svg PUBLIC "-//W3C//DTD SVG 1.1//EN" "http://www.w3.org/Graphics/SVG/1.1/DTD/svg11.dtd">
<svg width="25" height="11" viewBox="0 -7 25 11" xmlns="http://www.w3.org/2000/svg" version="1.1">
<title>OpenSCAD Model</title>
<path d="
M 24.4,-6.2 L 14.4,-6.2 L 14.4,-3 L 0,-3 L 0,-0 L 14.4,-0
 L 14.4,3.79999 L 24.4,3.79999 z
M 15.4,2.79999 L 15.4,-5.2 L 23.4,-5.2 L 23.4,2.79999 z
" stroke="black" fill="lightgray" stroke-width="0.5"/></svg>
